<?xml version="1.0" encoding="UTF-8"?><svg xmlns="http://www.w3.org/2000/svg" xmlns:xlink="http://www.w3.org/1999/xlink" fill-opacity="1" color-rendering="auto" color-interpolation="auto" text-rendering="auto" stroke="black" stroke-linecap="square" width="1002" stroke-miterlimit="10" shape-rendering="auto" stroke-opacity="1" fill="black" stroke-dasharray="none" font-weight="normal" stroke-width="1" height="202" font-family="'Dialog'" font-style="normal" stroke-linejoin="miter" font-size="12px" stroke-dashoffset="0" image-rendering="auto">
  <!--Generated by ySVG 2.5-->
  <defs id="genericDefs"/>
  <g>
    <g text-rendering="geometricPrecision" shape-rendering="geometricPrecision" transform="matrix(1,0,0,1,14.9297,59.1973)">
      <g clip-path="url(#clipPath3)">
        <svg xml:space="preserve" opacity="1" writing-mode="lr-tb" stop-color="rgb(0, 0, 0)" shape-rendering="auto" glyph-orientation-horizontal="0deg" color-profile="auto" lighting-color="rgb(255, 255, 255)" color="rgb(0, 0, 0)" font-weight="400" alignment-baseline="auto" font-style="normal" version="1.1" color-interpolation-filters="linearrgb" text-anchor="start" stroke-linecap="butt" color-interpolation="srgb" font-variant="normal" word-spacing="normal" fill-opacity="1" text-rendering="auto" clip-path="none" text-decoration="none" letter-spacing="normal" viewBox="-0.435 -0.869 68 60" glyph-orientation-vertical="auto" display="inline" font-size-adjust="none" overflow="hidden" fill="rgb(0, 0, 0)" font-stretch="normal" stroke-dasharray="none" stroke-miterlimit="4" stop-opacity="1" color-rendering="auto" font-size="12" pointer-events="visiblepainted" mask="none" direction="ltr" baseline-shift="baseline" enable-background="new -0.435 -0.869 68 60" fill-rule="nonzero" image-rendering="auto" stroke-dashoffset="0" width="68px" marker-end="none" clip="auto" cursor="auto" stroke="none" filter="none" visibility="visible" kerning="auto" stroke-width="1" font-family="&quot;Arial&quot;,&quot;Helvetica&quot;,sans-serif" flood-opacity="1" clip-rule="nonzero" src="none" height="60px" unicode-bidi="normal" stroke-linejoin="miter" stroke-opacity="1" flood-color="rgb(0, 0, 0)" dominant-baseline="auto" marker-start="none" x="0px" marker-mid="none" y="0px">
<defs>
<linearGradient x1="472.25" gradientUnits="userSpaceOnUse" x2="472.25" y1="750.0193" y2="768.0193" id="linearGradient1" spreadMethod="pad"><stop stop-opacity="1" stop-color="rgb(255,255,191)" offset="0%"/><stop stop-opacity="1" stop-color="rgb(255,255,51)" offset="100%"/></linearGradient><linearGradient x1="153.75" gradientUnits="userSpaceOnUse" x2="153.75" y1="803.8079" y2="821.8079" id="linearGradient2" spreadMethod="pad"><stop stop-opacity="1" stop-color="rgb(255,255,191)" offset="0%"/><stop stop-opacity="1" stop-color="rgb(255,255,51)" offset="100%"/></linearGradient><linearGradient x1="153.75" gradientUnits="userSpaceOnUse" x2="153.75" y1="750.0193" y2="768.0193" id="linearGradient3" spreadMethod="pad"><stop stop-opacity="1" stop-color="rgb(255,255,191)" offset="0%"/><stop stop-opacity="1" stop-color="rgb(255,255,51)" offset="100%"/></linearGradient><linearGradient x1="-81.0146" gradientUnits="userSpaceOnUse" x2="-81.0146" y1="769.6047" y2="787.6047" id="linearGradient4" spreadMethod="pad"><stop stop-opacity="1" stop-color="rgb(255,255,191)" offset="0%"/><stop stop-opacity="1" stop-color="rgb(255,255,51)" offset="100%"/></linearGradient><linearGradient x1="663.0696" gradientUnits="userSpaceOnUse" x2="663.0696" y1="711.2693" y2="729.2693" id="linearGradient5" spreadMethod="pad"><stop stop-opacity="1" stop-color="rgb(239,239,239)" offset="0%"/><stop stop-opacity="1" stop-color="rgb(205,205,205)" offset="100%"/></linearGradient><clipPath clipPathUnits="userSpaceOnUse" id="clipPath1"><path d="M0 0 L1002 0 L1002 202 L0 202 L0 0 Z"/></clipPath><clipPath clipPathUnits="userSpaceOnUse" id="clipPath2"><path d="M-227 697 L775 697 L775 899 L-227 899 L-227 697 Z"/></clipPath><clipPath clipPathUnits="userSpaceOnUse" id="clipPath3"><path d="M-14.9297 -59.1973 L987.0703 -59.1973 L987.0703 142.8027 L-14.9297 142.8027 L-14.9297 -59.1973 Z"/></clipPath><clipPath clipPathUnits="userSpaceOnUse" id="clipPath4"><path d="M-910.751 -77.0944 L92.3046 -77.0944 L92.3046 110.6138 L-910.751 110.6138 L-910.751 -77.0944 Z"/></clipPath><clipPath clipPathUnits="userSpaceOnUse" id="clipPath5"><path d="M-231 693 L771 693 L771 895 L-231 895 L-231 693 Z"/></clipPath><clipPath clipPathUnits="userSpaceOnUse" id="clipPath6"><path d="M-686.25 -41.0193 L315.75 -41.0193 L315.75 160.9807 L-686.25 160.9807 L-686.25 -41.0193 Z"/></clipPath><clipPath clipPathUnits="userSpaceOnUse" id="clipPath7"><path d="M-359.125 -41.0193 L141.875 -41.0193 L141.875 160.9807 L-359.125 160.9807 L-359.125 -41.0193 Z"/></clipPath><clipPath clipPathUnits="userSpaceOnUse" id="clipPath8"><path d="M-782.25 -41.0193 L219.75 -41.0193 L219.75 160.9807 L-782.25 160.9807 L-782.25 -41.0193 Z"/></clipPath><clipPath clipPathUnits="userSpaceOnUse" id="clipPath9"><path d="M-367.75 -94.8079 L634.25 -94.8079 L634.25 107.1921 L-367.75 107.1921 L-367.75 -94.8079 Z"/></clipPath><clipPath clipPathUnits="userSpaceOnUse" id="clipPath10"><path d="M-199.875 -94.8079 L301.125 -94.8079 L301.125 107.1921 L-199.875 107.1921 L-199.875 -94.8079 Z"/></clipPath><clipPath clipPathUnits="userSpaceOnUse" id="clipPath11"><path d="M-463.75 -94.8079 L538.25 -94.8079 L538.25 107.1921 L-463.75 107.1921 L-463.75 -94.8079 Z"/></clipPath><clipPath clipPathUnits="userSpaceOnUse" id="clipPath12"><path d="M-367.75 -41.0193 L634.25 -41.0193 L634.25 160.9807 L-367.75 160.9807 L-367.75 -41.0193 Z"/></clipPath><clipPath clipPathUnits="userSpaceOnUse" id="clipPath13"><path d="M-199.875 -41.0193 L301.125 -41.0193 L301.125 160.9807 L-199.875 160.9807 L-199.875 -41.0193 Z"/></clipPath><clipPath clipPathUnits="userSpaceOnUse" id="clipPath14"><path d="M-463.75 -41.0193 L538.25 -41.0193 L538.25 160.9807 L-463.75 160.9807 L-463.75 -41.0193 Z"/></clipPath><clipPath clipPathUnits="userSpaceOnUse" id="clipPath15"><path d="M-132.9854 -60.6047 L869.0146 -60.6047 L869.0146 141.3953 L-132.9854 141.3953 L-132.9854 -60.6047 Z"/></clipPath><clipPath clipPathUnits="userSpaceOnUse" id="clipPath16"><path d="M-82.4927 -60.6047 L418.5073 -60.6047 L418.5073 141.3953 L-82.4927 141.3953 L-82.4927 -60.6047 Z"/></clipPath><clipPath clipPathUnits="userSpaceOnUse" id="clipPath17"><path d="M-228.9854 -60.6047 L773.0146 -60.6047 L773.0146 141.3953 L-228.9854 141.3953 L-228.9854 -60.6047 Z"/></clipPath><clipPath clipPathUnits="userSpaceOnUse" id="clipPath18"><path d="M-877.0696 -2.2693 L124.9304 -2.2693 L124.9304 199.7307 L-877.0696 199.7307 L-877.0696 -2.2693 Z"/></clipPath><clipPath clipPathUnits="userSpaceOnUse" id="clipPath19"><path d="M-454.5348 -2.2693 L46.4652 -2.2693 L46.4652 199.7307 L-454.5348 199.7307 L-454.5348 -2.2693 Z"/></clipPath><clipPath clipPathUnits="userSpaceOnUse" id="clipPath20"><path d="M-973.0696 -2.2693 L28.9304 -2.2693 L28.9304 199.7307 L-973.0696 199.7307 L-973.0696 -2.2693 Z"/></clipPath></defs>
<path fill="#666666" d="M52.462,30.881c-0.021,0-0.037,0.01-0.059,0.012c-0.021-0.002-0.037-0.012-0.059-0.012h-18.5v-7.555  c0-0.414-0.335-0.75-0.75-0.75c-0.414,0-0.75,0.336-0.75,0.75v7.555h-18.5c-0.02,0-0.037,0.01-0.057,0.012  c-0.02-0.002-0.037-0.012-0.057-0.012c-0.414,0-0.75,0.336-0.75,0.75v3.834c0,0.414,0.336,0.75,0.75,0.75s0.75-0.336,0.75-0.75  v-3.084H51.71v3.084c0,0.414,0.336,0.75,0.75,0.75s0.75-0.336,0.75-0.75v-3.834C53.212,31.217,52.876,30.881,52.462,30.881z"/>
<linearGradient gradientTransform="matrix(1 0 0 -1 -97.6001 -158.6377)" x1="130.7236" x2="130.7236" gradientUnits="userSpaceOnUse" y1="-184.1631" y2="-191.9565" id="svg1.SVGID_1_">
	<stop offset="0" style="stop-color:#9CD7FF"/>
	<stop offset="1" style="stop-color:#3C89C9"/>
</linearGradient>
<path fill="url(#svg1.SVGID_1_)" d="M36.296,29.976c-0.832,0-1.513-0.681-1.513-1.513v-1.424c0-0.832-0.681-1.513-1.513-1.513h-0.214  c-0.832,0-1.513,0.681-1.513,1.513v1.424c0,0.832-0.681,1.513-1.513,1.513h-2.499c-0.832,0-1.513,0.681-1.513,1.513v0.317  c0,0.832,0.681,1.513,1.513,1.513h11.187c0.832,0,1.513-0.681,1.513-1.513v-0.317c0-0.833-0.681-1.513-1.513-1.513H36.296z"/>
<linearGradient gradientTransform="matrix(1 0 0 1 -585.5996 -1982.4023)" x1="605.8877" x2="593.1709" gradientUnits="userSpaceOnUse" y1="2040.6665" y2="2040.6665" id="svg1.SVGID_2_">
	<stop offset="0" style="stop-color:#4D4D4D"/>
	<stop offset="1" style="stop-color:#999999"/>
</linearGradient>
<path fill="url(#svg1.SVGID_2_)" d="M20.205,57.452c0,0.519-3.619,0.752-6.627,0.752c-2.083,0-5.846-0.186-6.089-0.678  c0,0.238,0,0.806,0,0.89c0,0.389,2.573,0.661,6.084,0.661c3.511,0,6.632-0.344,6.632-0.729C20.205,58.264,20.205,57.7,20.205,57.452  z"/>
<path fill="#808080" d="M13.846,56.806c3.512,0,6.358,0.313,6.358,0.699s-2.846,0.763-6.358,0.763c-3.59,0-6.358-0.375-6.358-0.763  S10.335,56.806,13.846,56.806z"/>
<linearGradient gradientTransform="matrix(1 0 0 1 -585.5996 -1982.4023)" x1="600.833" x2="598.1563" gradientUnits="userSpaceOnUse" y1="2037.4702" y2="2037.4702" id="svg1.SVGID_3_">
	<stop offset="0" style="stop-color:#999999"/>
	<stop offset="0.0417" style="stop-color:#8D8D8D"/>
	<stop offset="0.1617" style="stop-color:#717171"/>
	<stop offset="0.2821" style="stop-color:#5D5D5D"/>
	<stop offset="0.4021" style="stop-color:#515151"/>
	<stop offset="0.5212" style="stop-color:#4D4D4D"/>
	<stop offset="0.6202" style="stop-color:#565656"/>
	<stop offset="0.7817" style="stop-color:#6E6E6E"/>
	<stop offset="0.9844" style="stop-color:#969696"/>
	<stop offset="1" style="stop-color:#999999"/>
</linearGradient>
<path fill="url(#svg1.SVGID_3_)" d="M15.215,57.657c0,0-0.792,0.053-1.339,0.053s-1.338-0.053-1.338-0.053v-5.231h2.677V57.657z"/>
<radialGradient gradientTransform="matrix(1.15 0 0 1 -526.6041 -1982.4023)" id="svg1.SVGID_4_" r="12.8975" cx="465.1113" gradientUnits="userSpaceOnUse" cy="2023.4497">
	<stop offset="0" style="stop-color:#F2F2F2"/>
	<stop offset="1" style="stop-color:#666666"/>
</radialGradient>
<path fill="url(#svg1.SVGID_4_)" d="M0.065,36.888c0-0.59,0.482-1.071,1.072-1.071H26.98c0.589,0,1.071,0.481,1.071,1.071v16.108  c0,0.589-0.482,1.07-1.071,1.07H1.137c-0.59,0.002-1.072-0.481-1.072-1.07V36.888z"/>
<path stroke-linecap="round" fill="none" stroke-linejoin="round" d="  M0.065,36.888c0-0.59,0.482-1.071,1.072-1.071H26.98c0.589,0,1.071,0.481,1.071,1.071v16.108c0,0.589-0.482,1.07-1.071,1.07H1.137  c-0.59,0.002-1.072-0.481-1.072-1.07V36.888z" stroke="#666666" stroke-width="0.1305" stroke-miterlimit="10"/>
<radialGradient gradientTransform="matrix(1.1935 0 0 1 -509.6013 -1982.4023)" gradientUnits="userSpaceOnUse" r="28.5715" cx="439.1309" id="svg1.SVGID_5_" cy="2019.0845" fx="461.6079" fy="2015.234">
	<stop offset="0" style="stop-color:#4D4D4D"/>
	<stop offset="1" style="stop-color:#999999"/>
</radialGradient>
<path fill="url(#svg1.SVGID_5_)" d="M0.613,37.436c0-0.591,0.482-1.072,1.071-1.072h24.871c0.589,0,1.071,0.481,1.071,1.072v14.893  c0,0.59-0.482,1.072-1.071,1.072H1.685c-0.589,0-1.071-0.482-1.071-1.072V37.436z"/>
<radialGradient gradientTransform="matrix(1.1923 0 0 1 -510.0601 -1982.4023)" id="svg1.SVGID_6_" r="18.3134" cx="440.0439" gradientUnits="userSpaceOnUse" cy="2019.1304">
	<stop offset="0" style="stop-color:#9CD7FF"/>
	<stop offset="1" style="stop-color:#3C89C9"/>
</radialGradient>
<path fill="url(#svg1.SVGID_6_)" d="M0.917,37.679c0-0.59,0.482-1.071,1.072-1.071h24.262c0.589,0,1.071,0.481,1.071,1.071v14.406  c0,0.588-0.482,1.069-1.071,1.069H1.989c-0.59,0-1.072-0.481-1.072-1.069V37.679z"/>
<path fill="#F2F2F2" opacity="0.24" d="M0.917,49.11V37.679c0-0.59,0.482-1.071,1.072-1.071h24.262c0.589,0,1.071,0.481,1.071,1.071  v7.252l-12.407,2.646c-0.57,0.146-1.52,0.293-2.107,0.326L0.917,49.11z"/>
<linearGradient gradientTransform="matrix(1 0 0 1 -585.5996 -1982.4023)" x1="644.3887" x2="631.6719" gradientUnits="userSpaceOnUse" y1="2040.6665" y2="2040.6665" id="svg1.SVGID_7_">
	<stop offset="0" style="stop-color:#4D4D4D"/>
	<stop offset="1" style="stop-color:#999999"/>
</linearGradient>
<path fill="url(#svg1.SVGID_7_)" d="M58.706,57.452c0,0.518-3.621,0.752-6.627,0.752c-2.084,0-5.848-0.186-6.09-0.678  c0,0.237,0,0.805,0,0.889c0,0.389,2.572,0.662,6.084,0.662s6.633-0.344,6.633-0.729C58.706,58.263,58.706,57.7,58.706,57.452z"/>
<path fill="#808080" d="M52.347,56.805c3.512,0,6.357,0.313,6.357,0.699s-2.847,0.762-6.357,0.762c-3.59,0-6.357-0.373-6.357-0.762  C45.989,57.118,48.837,56.805,52.347,56.805z"/>
<linearGradient gradientTransform="matrix(1 0 0 1 -585.5996 -1982.4023)" x1="639.333" x2="636.6553" gradientUnits="userSpaceOnUse" y1="2037.4683" y2="2037.4683" id="svg1.SVGID_8_">
	<stop offset="0" style="stop-color:#999999"/>
	<stop offset="0.0417" style="stop-color:#8D8D8D"/>
	<stop offset="0.1617" style="stop-color:#717171"/>
	<stop offset="0.2821" style="stop-color:#5D5D5D"/>
	<stop offset="0.4021" style="stop-color:#515151"/>
	<stop offset="0.5212" style="stop-color:#4D4D4D"/>
	<stop offset="0.6202" style="stop-color:#565656"/>
	<stop offset="0.7817" style="stop-color:#6E6E6E"/>
	<stop offset="0.9844" style="stop-color:#969696"/>
	<stop offset="1" style="stop-color:#999999"/>
</linearGradient>
<path fill="url(#svg1.SVGID_8_)" d="M53.716,57.657c0,0-0.791,0.052-1.34,0.052c-0.547,0-1.338-0.052-1.338-0.052v-5.232h2.678V57.657z"/>
<radialGradient gradientTransform="matrix(1.15 0 0 1 -526.6041 -1982.4023)" id="svg1.SVGID_9_" r="12.8975" cx="498.5898" gradientUnits="userSpaceOnUse" cy="2023.4487">
	<stop offset="0" style="stop-color:#F2F2F2"/>
	<stop offset="1" style="stop-color:#666666"/>
</radialGradient>
<path fill="url(#svg1.SVGID_9_)" d="M38.566,36.887c0-0.59,0.481-1.072,1.071-1.072h25.844c0.589,0,1.07,0.482,1.07,1.072v16.107  c0,0.59-0.481,1.072-1.07,1.072H39.638c-0.59,0-1.071-0.482-1.071-1.072V36.887z"/>
<path stroke-linecap="round" fill="none" stroke-linejoin="round" d="  M38.566,36.887c0-0.59,0.481-1.072,1.071-1.072h25.844c0.589,0,1.07,0.482,1.07,1.072v16.107c0,0.59-0.481,1.072-1.07,1.072H39.638  c-0.59,0-1.071-0.482-1.071-1.072V36.887z" stroke="#666666" stroke-width="0.1305" stroke-miterlimit="10"/>
<radialGradient gradientTransform="matrix(1.1935 0 0 1 -509.6013 -1982.4023)" gradientUnits="userSpaceOnUse" r="28.5697" cx="471.3896" id="svg1.SVGID_10_" cy="2019.0845" fx="493.8652" fy="2015.2343">
	<stop offset="0" style="stop-color:#4D4D4D"/>
	<stop offset="1" style="stop-color:#999999"/>
</radialGradient>
<path fill="url(#svg1.SVGID_10_)" d="M39.114,37.434c0-0.59,0.482-1.072,1.071-1.072h24.87c0.589,0,1.07,0.482,1.07,1.072v14.895  c0,0.589-0.481,1.07-1.07,1.07h-24.87c-0.589,0-1.071-0.481-1.071-1.07V37.434z"/>
<radialGradient gradientTransform="matrix(1.1923 0 0 1 -510.0601 -1982.4023)" id="svg1.SVGID_11_" r="18.3139" cx="472.334" gradientUnits="userSpaceOnUse" cy="2019.1294">
	<stop offset="0" style="stop-color:#9CD7FF"/>
	<stop offset="1" style="stop-color:#3C89C9"/>
</radialGradient>
<path fill="url(#svg1.SVGID_11_)" d="M39.419,37.678c0-0.59,0.481-1.072,1.07-1.072h24.264c0.588,0,1.07,0.482,1.07,1.072v14.406  c0,0.588-0.482,1.07-1.07,1.07H40.489c-0.589,0-1.07-0.482-1.07-1.07V37.678z"/>
<path fill="#F2F2F2" opacity="0.24" d="M39.419,49.108v-11.43c0-0.59,0.481-1.072,1.07-1.072h24.264c0.588,0,1.07,0.482,1.07,1.072  v7.252l-12.408,2.645c-0.57,0.146-1.52,0.295-2.106,0.326L39.419,49.108z"/>
<linearGradient gradientTransform="matrix(1 0 0 1 -585.5996 -1982.4023)" x1="624.8936" x2="612.1787" gradientUnits="userSpaceOnUse" y1="2004.9155" y2="2004.9155" id="svg1.SVGID_12_">
	<stop offset="0" style="stop-color:#4D4D4D"/>
	<stop offset="1" style="stop-color:#999999"/>
</linearGradient>
<path fill="url(#svg1.SVGID_12_)" d="M39.212,21.701c0,0.518-3.621,0.752-6.626,0.752c-2.083,0-5.847-0.186-6.089-0.678  c0,0.238,0,0.805,0,0.889c0,0.389,2.573,0.662,6.084,0.662c3.51,0,6.631-0.344,6.631-0.729  C39.212,22.513,39.212,21.949,39.212,21.701z"/>
<path fill="#808080" d="M32.854,21.055c3.511,0,6.358,0.313,6.358,0.699c0,0.386-2.848,0.762-6.358,0.762  c-3.589,0-6.358-0.374-6.358-0.762C26.496,21.367,29.342,21.055,32.854,21.055z"/>
<linearGradient gradientTransform="matrix(1 0 0 1 -585.5996 -1982.4023)" x1="619.8379" x2="617.1611" gradientUnits="userSpaceOnUse" y1="2001.7183" y2="2001.7183" id="svg1.SVGID_13_">
	<stop offset="0" style="stop-color:#999999"/>
	<stop offset="0.0417" style="stop-color:#8D8D8D"/>
	<stop offset="0.1617" style="stop-color:#717171"/>
	<stop offset="0.2821" style="stop-color:#5D5D5D"/>
	<stop offset="0.4021" style="stop-color:#515151"/>
	<stop offset="0.5212" style="stop-color:#4D4D4D"/>
	<stop offset="0.6202" style="stop-color:#565656"/>
	<stop offset="0.7817" style="stop-color:#6E6E6E"/>
	<stop offset="0.9844" style="stop-color:#969696"/>
	<stop offset="1" style="stop-color:#999999"/>
</linearGradient>
<path fill="url(#svg1.SVGID_13_)" d="M34.222,21.906c0,0-0.791,0.052-1.338,0.052c-0.547,0-1.338-0.052-1.338-0.052v-5.232h2.677  L34.222,21.906L34.222,21.906z"/>
<radialGradient gradientTransform="matrix(1.15 0 0 1 -526.6041 -1982.4023)" id="svg1.SVGID_14_" r="12.8975" cx="481.6387" gradientUnits="userSpaceOnUse" cy="1987.6978">
	<stop offset="0" style="stop-color:#F2F2F2"/>
	<stop offset="1" style="stop-color:#666666"/>
</radialGradient>
<path fill="url(#svg1.SVGID_14_)" d="M19.072,1.137c0-0.59,0.482-1.072,1.071-1.072h25.843c0.589,0,1.071,0.482,1.071,1.072v16.108  c0,0.589-0.482,1.071-1.071,1.071H20.145c-0.589,0-1.071-0.482-1.071-1.071L19.072,1.137L19.072,1.137z"/>
<path stroke-linecap="round" fill="none" stroke-linejoin="round" d="  M19.072,1.137c0-0.59,0.482-1.072,1.071-1.072h25.843c0.589,0,1.071,0.482,1.071,1.072v16.108c0,0.589-0.482,1.071-1.071,1.071  H20.145c-0.589,0-1.071-0.482-1.071-1.071L19.072,1.137L19.072,1.137z" stroke="#666666" stroke-width="0.1305" stroke-miterlimit="10"/>
<radialGradient gradientTransform="matrix(1.1935 0 0 1 -509.6013 -1982.4023)" gradientUnits="userSpaceOnUse" r="28.5689" cx="455.0566" id="svg1.SVGID_15_" cy="1983.3345" fx="477.5316" fy="1979.4844">
	<stop offset="0" style="stop-color:#4D4D4D"/>
	<stop offset="1" style="stop-color:#999999"/>
</radialGradient>
<path fill="url(#svg1.SVGID_15_)" d="M19.621,1.685c0-0.59,0.482-1.072,1.072-1.072h24.87c0.589,0,1.071,0.482,1.071,1.072v14.894  c0,0.589-0.482,1.071-1.071,1.071h-24.87c-0.589,0-1.072-0.482-1.072-1.071V1.685z"/>
<radialGradient gradientTransform="matrix(1.1923 0 0 1 -510.0601 -1982.4023)" id="svg1.SVGID_16_" r="18.3134" cx="455.9854" gradientUnits="userSpaceOnUse" cy="1983.3784">
	<stop offset="0" style="stop-color:#9CD7FF"/>
	<stop offset="1" style="stop-color:#3C89C9"/>
</radialGradient>
<path fill="url(#svg1.SVGID_16_)" d="M19.924,1.928c0-0.59,0.482-1.072,1.072-1.072h24.262c0.589,0,1.07,0.482,1.07,1.072v14.406  c0,0.588-0.481,1.07-1.07,1.07H20.997c-0.589,0-1.072-0.482-1.072-1.07V1.928z"/>
<path fill="#F2F2F2" opacity="0.24" d="M19.924,13.358V1.928c0-0.59,0.482-1.072,1.072-1.072h24.262c0.589,0,1.07,0.482,1.07,1.072  V9.18l-12.408,2.646c-0.569,0.146-1.519,0.294-2.106,0.326L19.924,13.358z"/>
</svg>
      </g>
    </g>
    <g stroke-linecap="butt" transform="matrix(1,0,0,1,227,-697)" fill="rgb(0,204,255)" text-rendering="geometricPrecision" font-family="sans-serif" shape-rendering="geometricPrecision" stroke="rgb(0,204,255)" stroke-miterlimit="1.45">
      <text x="-193.3274" xml:space="preserve" y="832.4514" clip-path="url(#clipPath2)" stroke="none">Hosts</text>
    </g>
    <g text-rendering="geometricPrecision" shape-rendering="geometricPrecision" transform="matrix(0.9989,0,0,1.0761,909.7925,82.9643)">
      <g clip-path="url(#clipPath4)">
        <svg xml:space="preserve" opacity="1" writing-mode="lr-tb" stop-color="rgb(0, 0, 0)" shape-rendering="auto" glyph-orientation-horizontal="0deg" color-profile="auto" lighting-color="rgb(255, 255, 255)" color="rgb(0, 0, 0)" font-weight="400" alignment-baseline="auto" font-style="normal" version="1.1" color-interpolation-filters="linearrgb" text-anchor="start" stroke-linecap="butt" color-interpolation="srgb" font-variant="normal" word-spacing="normal" fill-opacity="1" text-rendering="auto" clip-path="none" text-decoration="none" letter-spacing="normal" viewBox="0 0 57 65" glyph-orientation-vertical="auto" display="inline" font-size-adjust="none" overflow="hidden" fill="rgb(0, 0, 0)" font-stretch="normal" stroke-dasharray="none" id="svg2.Ebene_1" stroke-miterlimit="4" stop-opacity="1" color-rendering="auto" font-size="12" pointer-events="visiblepainted" mask="none" direction="ltr" baseline-shift="baseline" enable-background="new 0 0 57 65" fill-rule="nonzero" image-rendering="auto" stroke-dashoffset="0" width="57px" marker-end="none" clip="auto" cursor="auto" stroke="none" filter="none" visibility="visible" kerning="auto" stroke-width="1" font-family="&quot;Arial&quot;,&quot;Helvetica&quot;,sans-serif" flood-opacity="1" clip-rule="nonzero" src="none" height="65px" unicode-bidi="normal" stroke-linejoin="miter" stroke-opacity="1" flood-color="rgb(0, 0, 0)" dominant-baseline="auto" marker-start="none" x="0px" marker-mid="none" y="0px">
<g>
	
		<linearGradient gradientTransform="matrix(1 0 0 1 0.3203 -3091.7656)" x1="26.3398" x2="27.5807" gradientUnits="userSpaceOnUse" y1="3115.7266" y2="3145.5239" id="svg2.SVGID_1_">
		<stop offset="0.2711" style="stop-color:#FFAB4F"/>
		<stop offset="1" style="stop-color:#FFD28F"/>
	</linearGradient>
	<path fill="url(#svg2.SVGID_1_)" d="M49.529,51.225c-4.396-4.396-10.951-5.884-12.063-6.109   V37.8H19.278c0,0,0.038,6.903,0,6.868c0,0-6.874,0.997-12.308,6.432C1.378,56.691,0.5,62.77,0.5,62.77   c0,1.938,1.575,3.492,3.523,3.492h48.51c1.947,0,3.521-1.558,3.521-3.492C56.055,62.768,54.211,55.906,49.529,51.225z" stroke-miterlimit="10" stroke="#ED9135"/>
	
		<radialGradient gradientTransform="matrix(1 0 0 1 0.3203 -3091.7656)" gradientUnits="userSpaceOnUse" r="23.425" cx="27.5835" id="svg2.face_x5F_white_1_" cy="3117.4922" fx="23.0139" fy="3115.0024">
		<stop offset="0" style="stop-color:#FFD28F"/>
		<stop offset="1" style="stop-color:#FFAB4F"/>
	</radialGradient>
	<path fill="url(#svg2.face_x5F_white_1_)" id="svg2.face_x5F_white_3_" d="M43.676,23.357   c0.086,10.2-6.738,18.52-15.25,18.586c-8.5,0.068-15.464-8.146-15.55-18.344C12.794,13.4,19.618,5.079,28.123,5.012   C36.627,4.945,43.59,13.158,43.676,23.357z" stroke-miterlimit="10" stroke="#ED9135"/>
	
		<linearGradient gradientTransform="matrix(0.275 0 0 -0.2733 -1752.8849 -3351.7349)" x1="6468.501" x2="6492.1304" gradientUnits="userSpaceOnUse" y1="-12291.5195" y2="-12384.9688" id="svg2.face_highlight_1_">
		<stop offset="0" style="stop-color:#FFFFFF;stop-opacity:0.24"/>
		<stop offset="1" style="stop-color:#FFFFFF;stop-opacity:0.16"/>
	</linearGradient>
	<path fill="url(#svg2.face_highlight_1_)" id="svg2.face_highlight_3_" d="M28.415,5.625c-6.035,0.047-10.747,4.493-12.787,10.386   c-0.664,1.919-0.294,4.043,0.98,5.629c2.73,3.398,5.729,6.283,9.461,8.088c3.137,1.518,7.535,2.385,11.893,1.247   c2.274-0.592,3.988-2.459,4.375-4.766c0.187-1.094,0.293-2.289,0.283-3.553C42.54,13.244,36.729,5.56,28.415,5.625z"/>
	<path fill="#5C5C5C" d="M32.215,9.938   c0,0,5.688,2.75,7.688,8.125c2.104,5.652,4.123,8.232,4.188,8c1.875-6.794,1.063-21.438-10.17-21.587   c-20.455-7.663-25.58,11.962-23.893,19.65c1.078,4.911,2.234,6.686,3.938,8.08C13.966,32.205,15.028,17.563,32.215,9.938z" stroke="#353535" stroke-linecap="round" stroke-linejoin="round"/>
	
		<linearGradient gradientTransform="matrix(0.9852 0 0 -0.9852 -34.4844 -3033.9702)" x1="95.9063" x2="31.5133" gradientUnits="userSpaceOnUse" y1="-3136.23" y2="-3136.23" id="svg2.body_1_">
		<stop offset="0" style="stop-color:#49AD33"/>
		<stop offset="1" style="stop-color:#C2DA92"/>
	</linearGradient>
	<path fill="url(#svg2.body_1_)" d="M0.5,62.768c0,1.938,1.575,3.494,3.523,3.494h48.51   c1.947,0,3.521-1.559,3.521-3.494c0,0-1.844-6.861-6.525-11.543c-4.815-4.813-8.244-5.146-8.244-5.146   c-1.444,6.983-8.555,8.786-13.007,8.786s-11.322-2.643-11.941-9.439c0,0-4.559,1.199-9.367,5.674   C1.378,56.689,0.5,62.768,0.5,62.768z" id="svg2.body_8_" stroke="#008D33"/>
</g>
</svg>
      </g>
    </g>
    <g stroke-linecap="butt" transform="matrix(1,0,0,1,227,-697)" fill="rgb(51,153,102)" text-rendering="geometricPrecision" font-family="sans-serif" shape-rendering="geometricPrecision" stroke="rgb(51,153,102)" stroke-miterlimit="1.45">
      <text x="687.0694" xml:space="preserve" y="866.2213" clip-path="url(#clipPath2)" stroke="none">Operator</text>
    </g>
    <g stroke-linecap="butt" transform="matrix(1,0,0,1,227,-697)" fill="rgb(51,153,102)" text-rendering="geometricPrecision" font-family="sans-serif" shape-rendering="geometricPrecision" stroke="rgb(51,153,102)" stroke-miterlimit="1.45">
      <text x="684.0694" xml:space="preserve" y="878.8094" clip-path="url(#clipPath2)" stroke="none">Developer</text>
    </g>
    <g fill="rgb(210,210,210)" text-rendering="geometricPrecision" shape-rendering="geometricPrecision" transform="matrix(1,0,0,1,227,-697) translate(4,4)" stroke="rgb(210,210,210)">
      <rect x="129.7083" width="463.7917" height="148.6707" y="712.2693" clip-path="url(#clipPath5)" stroke="none"/>
    </g>
    <g fill="rgb(242,240,216)" text-rendering="geometricPrecision" shape-rendering="geometricPrecision" transform="matrix(1,0,0,1,227,-697)" stroke="rgb(242,240,216)">
      <rect x="129.7083" width="463.7917" height="148.6707" y="712.2693" clip-path="url(#clipPath2)" stroke="none"/>
      <rect x="129.7083" y="712.2693" clip-path="url(#clipPath2)" fill="rgb(183,182,158)" width="463.7917" height="19.7351" stroke="none"/>
    </g>
    <g font-size="15px" stroke-linecap="butt" transform="matrix(1,0,0,1,227,-697)" text-rendering="geometricPrecision" font-family="sans-serif" shape-rendering="geometricPrecision" stroke-miterlimit="1.45">
      <text x="418.999" xml:space="preserve" y="727.1544" clip-path="url(#clipPath2)" stroke="none">Developer -&gt; Deployment</text>
    </g>
    <g text-rendering="geometricPrecision" shape-rendering="geometricPrecision" transform="matrix(1,0,0,1,686.25,41.0193)" image-rendering="optimizeQuality">
      <image x="0" y="0" clip-path="url(#clipPath6)" width="32" xlink:href="data:image/png;base64,iVBORw0KGgoAAAANSUhEUgAAACAAAABACAYAAAB7jnWuAAABPElEQVR4Xu2YuU5D&#10;QRAEx5zmBnElgMQZQMKdAMIIBAj+/3/o0mBB+HZsiYAuqdKd3t5x8BxhjDHGjJde&#10;wZHhkAk5KacKjgSDOWRG9uW8XGi0zHA4g5fkmtyQW99ud7QEtVM5w1ciD9qTh/JY&#10;njRYgttTOzdn+IE8k5fyRt42WIIA3J7adyOHc9iDHMinBktQ/1zkm3P7i8jhL/K9&#10;0RIEYONZNt6c2rkNB342WuJ3ABaJ+h3AARzAARzAARzAARzAARzgTwJsyiN5LR/l&#10;m/xotAQBfn8Znct7+SxfI4N0tQTfhrPx8214GtnCXWQTgwZL9OS0XIzcg/3IEDRx&#10;FRmmqyUIwDP05XJkiJ3IIOwE8s3YxTKEGP5DQhOrcj1yL1jOro7EsAmeg50gDMvJ&#10;L6SrY4EgLCYSqEVjjDH/nC9XkZCuTynmwQAAAABJRU5ErkJggg==" height="64" preserveAspectRatio="none"/>
      <image x="0" y="0" transform="matrix(2,0,0,1,32,0)" clip-path="url(#clipPath7)" width="32" xlink:href="data:image/png;base64,iVBORw0KGgoAAAANSUhEUgAAACAAAABACAYAAAB7jnWuAAAAg0lEQVR4Xu3IsQ3C&#10;ABTE0IugCjXKBDABooaKKOy/DwO49xV8S69xMk3TNE3JUpZzWS5l2cpyL8uzLO+y&#10;7GX5lmHYMGwYNgwbhg3DhmHDsGHYMGwYNgwbhg3DhmHDsGHYMGwYNgwbhg3DhmHL&#10;UZZPWV5leZTlVpZrWdaynMqmaZqmP+8HddwsEDGKXvcAAAAASUVORK5CYII=" height="64" preserveAspectRatio="none"/>
      <image x="0" y="0" transform="matrix(1,0,0,1,96,0)" clip-path="url(#clipPath8)" width="32" xlink:href="data:image/png;base64,iVBORw0KGgoAAAANSUhEUgAAACAAAABACAYAAAB7jnWuAAABN0lEQVR4Xu2YuU6D&#10;QQyEB8KZcIi7AKSfU4IGlEQUgCCAENf7vw8zcpEWeyOqGelr19963XgBx3EcxwHm&#10;iswsC0V6ZB4zkBkU6JMVsoSpSDkHCfbJHtklW2QdIaKOlDtxmeSCnJJjhNAGWUZ0&#10;opS7JGNyS67JCUJCz7KIYhdekjyTR4SIJI7IJqILJYHPJB/kjTwgOqEubCNmoTSM&#10;P0m+ERLqxIicIYZyFf8sMEE8wzksYAELWMACFrCABSxgAQs0CujADF/knTyRIWIv&#10;2EGDgG6TQcVfyT25IR0aN6NJAm1DurmKayu6IoeI3VB/BaXdUO+YQYV1cxXvEP8F&#10;AzRsx9r3/4oGTm/eIbZiFW/+H9AhGTTxenO1fQ3T4qXbK/0kmnYNnAqr7U3FFR2Q&#10;RdMumgo7juM4jvILn5mYr6S1pisAAAAASUVORK5CYII=" height="64" preserveAspectRatio="none"/>
      <path fill="yellow" d="M472.25 766.0193 L568.25 766.0193 L568.25 780.0193 Q568.25 783.0193 565.25 783.0193 L475.25 783.0193 Q472.25 783.0193 472.25 780.0193 Z" clip-path="url(#clipPath2)" transform="matrix(1,0,0,1,-459.25,-738.0193)" stroke="none" image-rendering="auto"/>
      <path fill="url(#linearGradient1)" d="M472.25 754.0193 Q472.25 751.0193 475.25 751.0193 L565.25 751.0193 Q568.25 751.0193 568.25 754.0193 L568.25 767.0193 L472.25 767.0193 Z" clip-path="url(#clipPath2)" transform="matrix(1,0,0,1,-459.25,-738.0193)" stroke="none" image-rendering="auto"/>
    </g>
    <g fill="rgb(255,255,217)" text-rendering="geometricPrecision" stroke-width="2" shape-rendering="geometricPrecision" transform="matrix(1,0,0,1,227,-697)" stroke="rgb(255,255,217)">
      <path fill="none" d="M474.25 754.0193 Q474.25 753.0193 475.25 753.0193 L565.25 753.0193 Q566.25 753.0193 566.25 754.0193 L566.25 780.0193 Q566.25 781.0193 565.25 781.0193 L475.25 781.0193 Q474.25 781.0193 474.25 780.0193 Z" clip-path="url(#clipPath2)"/>
      <path fill="none" d="M474.25 754.0193 Q474.25 753.0193 475.25 753.0193 L565.25 753.0193 Q566.25 753.0193 566.25 754.0193 L566.25 780.0193 Q566.25 781.0193 565.25 781.0193 L475.25 781.0193 Q474.25 781.0193 474.25 780.0193 Z" stroke-width="1" clip-path="url(#clipPath2)" stroke="yellow"/>
    </g>
    <g stroke-linecap="butt" transform="matrix(1,0,0,1,227,-697)" text-rendering="geometricPrecision" font-family="sans-serif" shape-rendering="geometricPrecision" font-weight="bold" stroke-miterlimit="1.45">
      <text x="498.2334" xml:space="preserve" y="771.1736" clip-path="url(#clipPath2)" stroke="none">GitLab</text>
    </g>
    <g text-rendering="geometricPrecision" shape-rendering="geometricPrecision" transform="matrix(1,0,0,1,367.75,94.8079)" image-rendering="optimizeQuality">
      <image x="0" y="0" clip-path="url(#clipPath9)" width="32" xlink:href="data:image/png;base64,iVBORw0KGgoAAAANSUhEUgAAACAAAABACAYAAAB7jnWuAAABPElEQVR4Xu2YuU5D&#10;QRAEx5zmBnElgMQZQMKdAMIIBAj+/3/o0mBB+HZsiYAuqdKd3t5x8BxhjDHGjJde&#10;wZHhkAk5KacKjgSDOWRG9uW8XGi0zHA4g5fkmtyQW99ud7QEtVM5w1ciD9qTh/JY&#10;njRYgttTOzdn+IE8k5fyRt42WIIA3J7adyOHc9iDHMinBktQ/1zkm3P7i8jhL/K9&#10;0RIEYONZNt6c2rkNB342WuJ3ABaJ+h3AARzAARzAARzAARzAARzgTwJsyiN5LR/l&#10;m/xotAQBfn8Znct7+SxfI4N0tQTfhrPx8214GtnCXWQTgwZL9OS0XIzcg/3IEDRx&#10;FRmmqyUIwDP05XJkiJ3IIOwE8s3YxTKEGP5DQhOrcj1yL1jOro7EsAmeg50gDMvJ&#10;L6SrY4EgLCYSqEVjjDH/nC9XkZCuTynmwQAAAABJRU5ErkJggg==" height="64" preserveAspectRatio="none"/>
      <image x="0" y="0" transform="matrix(2,0,0,1,32,0)" clip-path="url(#clipPath10)" width="32" xlink:href="data:image/png;base64,iVBORw0KGgoAAAANSUhEUgAAACAAAABACAYAAAB7jnWuAAAAg0lEQVR4Xu3IsQ3C&#10;ABTE0IugCjXKBDABooaKKOy/DwO49xV8S69xMk3TNE3JUpZzWS5l2cpyL8uzLO+y&#10;7GX5lmHYMGwYNgwbhg3DhmHDsGHYMGwYNgwbhg3DhmHDsGHYMGwYNgwbhg3DhmHL&#10;UZZPWV5leZTlVpZrWdaynMqmaZqmP+8HddwsEDGKXvcAAAAASUVORK5CYII=" height="64" preserveAspectRatio="none"/>
      <image x="0" y="0" transform="matrix(1,0,0,1,96,0)" clip-path="url(#clipPath11)" width="32" xlink:href="data:image/png;base64,iVBORw0KGgoAAAANSUhEUgAAACAAAABACAYAAAB7jnWuAAABN0lEQVR4Xu2YuU6D&#10;QQyEB8KZcIi7AKSfU4IGlEQUgCCAENf7vw8zcpEWeyOqGelr19963XgBx3EcxwHm&#10;iswsC0V6ZB4zkBkU6JMVsoSpSDkHCfbJHtklW2QdIaKOlDtxmeSCnJJjhNAGWUZ0&#10;opS7JGNyS67JCUJCz7KIYhdekjyTR4SIJI7IJqILJYHPJB/kjTwgOqEubCNmoTSM&#10;P0m+ERLqxIicIYZyFf8sMEE8wzksYAELWMACFrCABSxgAQs0CujADF/knTyRIWIv&#10;2EGDgG6TQcVfyT25IR0aN6NJAm1DurmKayu6IoeI3VB/BaXdUO+YQYV1cxXvEP8F&#10;AzRsx9r3/4oGTm/eIbZiFW/+H9AhGTTxenO1fQ3T4qXbK/0kmnYNnAqr7U3FFR2Q&#10;RdMumgo7juM4jvILn5mYr6S1pisAAAAASUVORK5CYII=" height="64" preserveAspectRatio="none"/>
      <path fill="yellow" d="M153.75 819.8079 L249.75 819.8079 L249.75 833.8079 Q249.75 836.8079 246.75 836.8079 L156.75 836.8079 Q153.75 836.8079 153.75 833.8079 Z" clip-path="url(#clipPath2)" transform="matrix(1,0,0,1,-140.75,-791.8079)" stroke="none" image-rendering="auto"/>
      <path fill="url(#linearGradient2)" d="M153.75 807.8079 Q153.75 804.8079 156.75 804.8079 L246.75 804.8079 Q249.75 804.8079 249.75 807.8079 L249.75 820.8079 L153.75 820.8079 Z" clip-path="url(#clipPath2)" transform="matrix(1,0,0,1,-140.75,-791.8079)" stroke="none" image-rendering="auto"/>
    </g>
    <g fill="rgb(255,255,217)" text-rendering="geometricPrecision" stroke-width="2" shape-rendering="geometricPrecision" transform="matrix(1,0,0,1,227,-697)" stroke="rgb(255,255,217)">
      <path fill="none" d="M155.75 807.8079 Q155.75 806.8079 156.75 806.8079 L246.75 806.8079 Q247.75 806.8079 247.75 807.8079 L247.75 833.8079 Q247.75 834.8079 246.75 834.8079 L156.75 834.8079 Q155.75 834.8079 155.75 833.8079 Z" clip-path="url(#clipPath2)"/>
      <path fill="none" d="M155.75 807.8079 Q155.75 806.8079 156.75 806.8079 L246.75 806.8079 Q247.75 806.8079 247.75 807.8079 L247.75 833.8079 Q247.75 834.8079 246.75 834.8079 L156.75 834.8079 Q155.75 834.8079 155.75 833.8079 Z" stroke-width="1" clip-path="url(#clipPath2)" stroke="yellow"/>
    </g>
    <g stroke-linecap="butt" transform="matrix(1,0,0,1,227,-697)" text-rendering="geometricPrecision" font-family="sans-serif" shape-rendering="geometricPrecision" font-weight="bold" stroke-miterlimit="1.45">
      <text x="177.2871" xml:space="preserve" y="824.9622" clip-path="url(#clipPath2)" stroke="none">Jenkins</text>
    </g>
    <g text-rendering="geometricPrecision" shape-rendering="geometricPrecision" transform="matrix(1,0,0,1,367.75,41.0193)" image-rendering="optimizeQuality">
      <image x="0" y="0" clip-path="url(#clipPath12)" width="32" xlink:href="data:image/png;base64,iVBORw0KGgoAAAANSUhEUgAAACAAAABACAYAAAB7jnWuAAABPElEQVR4Xu2YuU5D&#10;QRAEx5zmBnElgMQZQMKdAMIIBAj+/3/o0mBB+HZsiYAuqdKd3t5x8BxhjDHGjJde&#10;wZHhkAk5KacKjgSDOWRG9uW8XGi0zHA4g5fkmtyQW99ud7QEtVM5w1ciD9qTh/JY&#10;njRYgttTOzdn+IE8k5fyRt42WIIA3J7adyOHc9iDHMinBktQ/1zkm3P7i8jhL/K9&#10;0RIEYONZNt6c2rkNB342WuJ3ABaJ+h3AARzAARzAARzAARzAARzgTwJsyiN5LR/l&#10;m/xotAQBfn8Znct7+SxfI4N0tQTfhrPx8214GtnCXWQTgwZL9OS0XIzcg/3IEDRx&#10;FRmmqyUIwDP05XJkiJ3IIOwE8s3YxTKEGP5DQhOrcj1yL1jOro7EsAmeg50gDMvJ&#10;L6SrY4EgLCYSqEVjjDH/nC9XkZCuTynmwQAAAABJRU5ErkJggg==" height="64" preserveAspectRatio="none"/>
      <image x="0" y="0" transform="matrix(2,0,0,1,32,0)" clip-path="url(#clipPath13)" width="32" xlink:href="data:image/png;base64,iVBORw0KGgoAAAANSUhEUgAAACAAAABACAYAAAB7jnWuAAAAg0lEQVR4Xu3IsQ3C&#10;ABTE0IugCjXKBDABooaKKOy/DwO49xV8S69xMk3TNE3JUpZzWS5l2cpyL8uzLO+y&#10;7GX5lmHYMGwYNgwbhg3DhmHDsGHYMGwYNgwbhg3DhmHDsGHYMGwYNgwbhg3DhmHL&#10;UZZPWV5leZTlVpZrWdaynMqmaZqmP+8HddwsEDGKXvcAAAAASUVORK5CYII=" height="64" preserveAspectRatio="none"/>
      <image x="0" y="0" transform="matrix(1,0,0,1,96,0)" clip-path="url(#clipPath14)" width="32" xlink:href="data:image/png;base64,iVBORw0KGgoAAAANSUhEUgAAACAAAABACAYAAAB7jnWuAAABN0lEQVR4Xu2YuU6D&#10;QQyEB8KZcIi7AKSfU4IGlEQUgCCAENf7vw8zcpEWeyOqGelr19963XgBx3EcxwHm&#10;iswsC0V6ZB4zkBkU6JMVsoSpSDkHCfbJHtklW2QdIaKOlDtxmeSCnJJjhNAGWUZ0&#10;opS7JGNyS67JCUJCz7KIYhdekjyTR4SIJI7IJqILJYHPJB/kjTwgOqEubCNmoTSM&#10;P0m+ERLqxIicIYZyFf8sMEE8wzksYAELWMACFrCABSxgAQs0CujADF/knTyRIWIv&#10;2EGDgG6TQcVfyT25IR0aN6NJAm1DurmKayu6IoeI3VB/BaXdUO+YQYV1cxXvEP8F&#10;AzRsx9r3/4oGTm/eIbZiFW/+H9AhGTTxenO1fQ3T4qXbK/0kmnYNnAqr7U3FFR2Q&#10;RdMumgo7juM4jvILn5mYr6S1pisAAAAASUVORK5CYII=" height="64" preserveAspectRatio="none"/>
      <path fill="yellow" d="M153.75 766.0193 L249.75 766.0193 L249.75 780.0193 Q249.75 783.0193 246.75 783.0193 L156.75 783.0193 Q153.75 783.0193 153.75 780.0193 Z" clip-path="url(#clipPath2)" transform="matrix(1,0,0,1,-140.75,-738.0193)" stroke="none" image-rendering="auto"/>
      <path fill="url(#linearGradient3)" d="M153.75 754.0193 Q153.75 751.0193 156.75 751.0193 L246.75 751.0193 Q249.75 751.0193 249.75 754.0193 L249.75 767.0193 L153.75 767.0193 Z" clip-path="url(#clipPath2)" transform="matrix(1,0,0,1,-140.75,-738.0193)" stroke="none" image-rendering="auto"/>
    </g>
    <g fill="rgb(255,255,217)" text-rendering="geometricPrecision" stroke-width="2" shape-rendering="geometricPrecision" transform="matrix(1,0,0,1,227,-697)" stroke="rgb(255,255,217)">
      <path fill="none" d="M155.75 754.0193 Q155.75 753.0193 156.75 753.0193 L246.75 753.0193 Q247.75 753.0193 247.75 754.0193 L247.75 780.0193 Q247.75 781.0193 246.75 781.0193 L156.75 781.0193 Q155.75 781.0193 155.75 780.0193 Z" clip-path="url(#clipPath2)"/>
      <path fill="none" d="M155.75 754.0193 Q155.75 753.0193 156.75 753.0193 L246.75 753.0193 Q247.75 753.0193 247.75 754.0193 L247.75 780.0193 Q247.75 781.0193 246.75 781.0193 L156.75 781.0193 Q155.75 781.0193 155.75 780.0193 Z" stroke-width="1" clip-path="url(#clipPath2)" stroke="yellow"/>
    </g>
    <g stroke-linecap="butt" transform="matrix(1,0,0,1,227,-697)" text-rendering="geometricPrecision" font-family="sans-serif" shape-rendering="geometricPrecision" font-weight="bold" stroke-miterlimit="1.45">
      <text x="177.2871" xml:space="preserve" y="771.1736" clip-path="url(#clipPath2)" stroke="none">Runner</text>
    </g>
    <g text-rendering="geometricPrecision" shape-rendering="geometricPrecision" transform="matrix(1,0,0,1,132.9854,60.6047)" image-rendering="optimizeQuality">
      <image x="0" y="0" clip-path="url(#clipPath15)" width="32" xlink:href="data:image/png;base64,iVBORw0KGgoAAAANSUhEUgAAACAAAABACAYAAAB7jnWuAAABPElEQVR4Xu2YuU5D&#10;QRAEx5zmBnElgMQZQMKdAMIIBAj+/3/o0mBB+HZsiYAuqdKd3t5x8BxhjDHGjJde&#10;wZHhkAk5KacKjgSDOWRG9uW8XGi0zHA4g5fkmtyQW99ud7QEtVM5w1ciD9qTh/JY&#10;njRYgttTOzdn+IE8k5fyRt42WIIA3J7adyOHc9iDHMinBktQ/1zkm3P7i8jhL/K9&#10;0RIEYONZNt6c2rkNB342WuJ3ABaJ+h3AARzAARzAARzAARzAARzgTwJsyiN5LR/l&#10;m/xotAQBfn8Znct7+SxfI4N0tQTfhrPx8214GtnCXWQTgwZL9OS0XIzcg/3IEDRx&#10;FRmmqyUIwDP05XJkiJ3IIOwE8s3YxTKEGP5DQhOrcj1yL1jOro7EsAmeg50gDMvJ&#10;L6SrY4EgLCYSqEVjjDH/nC9XkZCuTynmwQAAAABJRU5ErkJggg==" height="64" preserveAspectRatio="none"/>
      <image x="0" y="0" transform="matrix(2,0,0,1,32,0)" clip-path="url(#clipPath16)" width="32" xlink:href="data:image/png;base64,iVBORw0KGgoAAAANSUhEUgAAACAAAABACAYAAAB7jnWuAAAAg0lEQVR4Xu3IsQ3C&#10;ABTE0IugCjXKBDABooaKKOy/DwO49xV8S69xMk3TNE3JUpZzWS5l2cpyL8uzLO+y&#10;7GX5lmHYMGwYNgwbhg3DhmHDsGHYMGwYNgwbhg3DhmHDsGHYMGwYNgwbhg3DhmHL&#10;UZZPWV5leZTlVpZrWdaynMqmaZqmP+8HddwsEDGKXvcAAAAASUVORK5CYII=" height="64" preserveAspectRatio="none"/>
      <image x="0" y="0" transform="matrix(1,0,0,1,96,0)" clip-path="url(#clipPath17)" width="32" xlink:href="data:image/png;base64,iVBORw0KGgoAAAANSUhEUgAAACAAAABACAYAAAB7jnWuAAABN0lEQVR4Xu2YuU6D&#10;QQyEB8KZcIi7AKSfU4IGlEQUgCCAENf7vw8zcpEWeyOqGelr19963XgBx3EcxwHm&#10;iswsC0V6ZB4zkBkU6JMVsoSpSDkHCfbJHtklW2QdIaKOlDtxmeSCnJJjhNAGWUZ0&#10;opS7JGNyS67JCUJCz7KIYhdekjyTR4SIJI7IJqILJYHPJB/kjTwgOqEubCNmoTSM&#10;P0m+ERLqxIicIYZyFf8sMEE8wzksYAELWMACFrCABSxgAQs0CujADF/knTyRIWIv&#10;2EGDgG6TQcVfyT25IR0aN6NJAm1DurmKayu6IoeI3VB/BaXdUO+YQYV1cxXvEP8F&#10;AzRsx9r3/4oGTm/eIbZiFW/+H9AhGTTxenO1fQ3T4qXbK/0kmnYNnAqr7U3FFR2Q&#10;RdMumgo7juM4jvILn5mYr6S1pisAAAAASUVORK5CYII=" height="64" preserveAspectRatio="none"/>
      <path fill="yellow" d="M-81.0146 785.6047 L14.9854 785.6047 L14.9854 799.6047 Q14.9854 802.6047 11.9854 802.6047 L-78.0146 802.6047 Q-81.0146 802.6047 -81.0146 799.6047 Z" clip-path="url(#clipPath2)" transform="matrix(1,0,0,1,94.0146,-757.6047)" stroke="none" image-rendering="auto"/>
      <path fill="url(#linearGradient4)" d="M-81.0146 773.6047 Q-81.0146 770.6047 -78.0146 770.6047 L11.9854 770.6047 Q14.9854 770.6047 14.9854 773.6047 L14.9854 786.6047 L-81.0146 786.6047 Z" clip-path="url(#clipPath2)" transform="matrix(1,0,0,1,94.0146,-757.6047)" stroke="none" image-rendering="auto"/>
    </g>
    <g fill="rgb(255,255,217)" text-rendering="geometricPrecision" stroke-width="2" shape-rendering="geometricPrecision" transform="matrix(1,0,0,1,227,-697)" stroke="rgb(255,255,217)">
      <path fill="none" d="M-79.0146 773.6047 Q-79.0146 772.6047 -78.0146 772.6047 L11.9854 772.6047 Q12.9854 772.6047 12.9854 773.6047 L12.9854 799.6047 Q12.9854 800.6047 11.9854 800.6047 L-78.0146 800.6047 Q-79.0146 800.6047 -79.0146 799.6047 Z" clip-path="url(#clipPath2)"/>
      <path fill="none" d="M-79.0146 773.6047 Q-79.0146 772.6047 -78.0146 772.6047 L11.9854 772.6047 Q12.9854 772.6047 12.9854 773.6047 L12.9854 799.6047 Q12.9854 800.6047 11.9854 800.6047 L-78.0146 800.6047 Q-79.0146 800.6047 -79.0146 799.6047 Z" stroke-width="1" clip-path="url(#clipPath2)" stroke="yellow"/>
    </g>
    <g stroke-linecap="butt" transform="matrix(1,0,0,1,227,-697)" text-rendering="geometricPrecision" font-family="sans-serif" shape-rendering="geometricPrecision" font-weight="bold" stroke-miterlimit="1.45">
      <text x="-56.4492" xml:space="preserve" y="790.759" clip-path="url(#clipPath2)" stroke="none">Deploy</text>
    </g>
    <g text-rendering="geometricPrecision" shape-rendering="geometricPrecision" transform="matrix(1,0,0,1,877.0696,2.2693)" image-rendering="optimizeQuality">
      <image x="0" y="0" clip-path="url(#clipPath18)" width="32" xlink:href="data:image/png;base64,iVBORw0KGgoAAAANSUhEUgAAACAAAABACAYAAAB7jnWuAAABPElEQVR4Xu2YuU5D&#10;QRAEx5zmBnElgMQZQMKdAMIIBAj+/3/o0mBB+HZsiYAuqdKd3t5x8BxhjDHGjJde&#10;wZHhkAk5KacKjgSDOWRG9uW8XGi0zHA4g5fkmtyQW99ud7QEtVM5w1ciD9qTh/JY&#10;njRYgttTOzdn+IE8k5fyRt42WIIA3J7adyOHc9iDHMinBktQ/1zkm3P7i8jhL/K9&#10;0RIEYONZNt6c2rkNB342WuJ3ABaJ+h3AARzAARzAARzAARzAARzgTwJsyiN5LR/l&#10;m/xotAQBfn8Znct7+SxfI4N0tQTfhrPx8214GtnCXWQTgwZL9OS0XIzcg/3IEDRx&#10;FRmmqyUIwDP05XJkiJ3IIOwE8s3YxTKEGP5DQhOrcj1yL1jOro7EsAmeg50gDMvJ&#10;L6SrY4EgLCYSqEVjjDH/nC9XkZCuTynmwQAAAABJRU5ErkJggg==" height="64" preserveAspectRatio="none"/>
      <image x="0" y="0" transform="matrix(2,0,0,1,32,0)" clip-path="url(#clipPath19)" width="32" xlink:href="data:image/png;base64,iVBORw0KGgoAAAANSUhEUgAAACAAAABACAYAAAB7jnWuAAAAg0lEQVR4Xu3IsQ3C&#10;ABTE0IugCjXKBDABooaKKOy/DwO49xV8S69xMk3TNE3JUpZzWS5l2cpyL8uzLO+y&#10;7GX5lmHYMGwYNgwbhg3DhmHDsGHYMGwYNgwbhg3DhmHDsGHYMGwYNgwbhg3DhmHL&#10;UZZPWV5leZTlVpZrWdaynMqmaZqmP+8HddwsEDGKXvcAAAAASUVORK5CYII=" height="64" preserveAspectRatio="none"/>
      <image x="0" y="0" transform="matrix(1,0,0,1,96,0)" clip-path="url(#clipPath20)" width="32" xlink:href="data:image/png;base64,iVBORw0KGgoAAAANSUhEUgAAACAAAABACAYAAAB7jnWuAAABN0lEQVR4Xu2YuU6D&#10;QQyEB8KZcIi7AKSfU4IGlEQUgCCAENf7vw8zcpEWeyOqGelr19963XgBx3EcxwHm&#10;iswsC0V6ZB4zkBkU6JMVsoSpSDkHCfbJHtklW2QdIaKOlDtxmeSCnJJjhNAGWUZ0&#10;opS7JGNyS67JCUJCz7KIYhdekjyTR4SIJI7IJqILJYHPJB/kjTwgOqEubCNmoTSM&#10;P0m+ERLqxIicIYZyFf8sMEE8wzksYAELWMACFrCABSxgAQs0CujADF/knTyRIWIv&#10;2EGDgG6TQcVfyT25IR0aN6NJAm1DurmKayu6IoeI3VB/BaXdUO+YQYV1cxXvEP8F&#10;AzRsx9r3/4oGTm/eIbZiFW/+H9AhGTTxenO1fQ3T4qXbK/0kmnYNnAqr7U3FFR2Q&#10;RdMumgo7juM4jvILn5mYr6S1pisAAAAASUVORK5CYII=" height="64" preserveAspectRatio="none"/>
      <path fill="silver" d="M663.0696 727.2693 L759.0696 727.2693 L759.0696 741.2693 Q759.0696 744.2693 756.0696 744.2693 L666.0696 744.2693 Q663.0696 744.2693 663.0696 741.2693 Z" clip-path="url(#clipPath2)" transform="matrix(1,0,0,1,-650.0696,-699.2693)" stroke="none" image-rendering="auto"/>
      <path fill="url(#linearGradient5)" d="M663.0696 715.2693 Q663.0696 712.2693 666.0696 712.2693 L756.0696 712.2693 Q759.0696 712.2693 759.0696 715.2693 L759.0696 728.2693 L663.0696 728.2693 Z" clip-path="url(#clipPath2)" transform="matrix(1,0,0,1,-650.0696,-699.2693)" stroke="none" image-rendering="auto"/>
    </g>
    <g fill="rgb(246,246,246)" text-rendering="geometricPrecision" stroke-width="2" shape-rendering="geometricPrecision" transform="matrix(1,0,0,1,227,-697)" stroke="rgb(246,246,246)">
      <path fill="none" d="M665.0696 715.2693 Q665.0696 714.2693 666.0696 714.2693 L756.0696 714.2693 Q757.0696 714.2693 757.0696 715.2693 L757.0696 741.2693 Q757.0696 742.2693 756.0696 742.2693 L666.0696 742.2693 Q665.0696 742.2693 665.0696 741.2693 Z" clip-path="url(#clipPath2)"/>
      <path fill="none" d="M665.0696 715.2693 Q665.0696 714.2693 666.0696 714.2693 L756.0696 714.2693 Q757.0696 714.2693 757.0696 715.2693 L757.0696 741.2693 Q757.0696 742.2693 756.0696 742.2693 L666.0696 742.2693 Q665.0696 742.2693 665.0696 741.2693 Z" stroke-width="1" clip-path="url(#clipPath2)" stroke="silver"/>
    </g>
    <g stroke-linecap="butt" transform="matrix(1,0,0,1,227,-697)" text-rendering="geometricPrecision" font-family="sans-serif" shape-rendering="geometricPrecision" font-weight="bold" stroke-miterlimit="1.45">
      <text x="699.7727" xml:space="preserve" y="732.4236" clip-path="url(#clipPath2)" stroke="none">Jira</text>
    </g>
    <g stroke-linecap="butt" transform="matrix(1,0,0,1,227,-697)" fill="rgb(255,204,153)" text-rendering="geometricPrecision" shape-rendering="geometricPrecision" stroke="rgb(255,204,153)" stroke-width="2" stroke-miterlimit="1.45">
      <path fill="none" d="M692.6678 810.3176 L577.0084 781.2728" clip-path="url(#clipPath2)"/>
      <path d="M568.2795 779.0807 L580.0029 787.8244 L578.0995 781.5468 L582.743 776.9132 Z" clip-path="url(#clipPath2)" stroke="none"/>
      <path fill="none" d="M249.7661 812.6989 L463.4004 776.6201" clip-path="url(#clipPath2)"/>
      <path d="M472.2747 775.1214 L458.0266 771.823 L462.2911 776.8074 L459.8999 782.916 Z" clip-path="url(#clipPath2)" stroke="none"/>
      <path fill="none" d="M472.2339 767.0193 L258.7253 767.0193" clip-path="url(#clipPath2)"/>
      <path d="M249.7253 767.0193 L263.2253 772.6443 L259.8503 767.0193 L263.2253 761.3943 Z" clip-path="url(#clipPath2)" stroke="none"/>
      <path fill="none" d="M153.7482 813.8145 L23.9043 794.8973" clip-path="url(#clipPath2)"/>
      <path d="M14.9984 793.5998 L27.5464 801.1122 L25.0176 795.0594 L29.1683 789.9798 Z" clip-path="url(#clipPath2)" stroke="none"/>
      <path fill="none" d="M153.7482 771.0239 L23.9672 781.851" clip-path="url(#clipPath2)"/>
      <path d="M14.9984 782.5992 L28.9193 787.0823 L25.0883 781.7574 L27.984 775.8713 Z" clip-path="url(#clipPath2)" stroke="none"/>
      <path fill="none" d="M-81.0147 786.6047 L-136.0186 786.6047" clip-path="url(#clipPath2)"/>
      <path d="M-145.0186 786.6047 L-131.5186 792.2297 L-134.8936 786.6047 L-131.5186 780.9797 Z" clip-path="url(#clipPath2)" stroke="none"/>
      <path fill="none" d="M711.0696 782.1415 L711.0696 753.2889" clip-path="url(#clipPath2)"/>
      <path d="M711.0696 744.2889 L705.4446 757.7889 L711.0696 754.4139 L716.6946 757.7889 Z" clip-path="url(#clipPath2)" stroke="none"/>
      <path fill="none" stroke-dasharray="6,2" d="M655.1986 739.6151 L576.0929 755.6792" stroke-width="1" clip-path="url(#clipPath2)"/>
      <path stroke-dasharray="6,2" d="M663.0386 738.023 L650.2836 735.5112 L654.2186 739.8141 L652.2737 745.3112 Z" stroke-width="1" clip-path="url(#clipPath2)" stroke="none"/>
      <path stroke-dasharray="6,2" d="M568.2529 757.2713 L581.0079 759.7831 L577.0729 755.4802 L579.0178 749.9832 Z" stroke-width="1" clip-path="url(#clipPath2)" stroke="none"/>
    </g>
  </g>
</svg>
